lab2/mysram/SRAMmemory.vcd
$date
	Sat Jan 28 15:03:42 2017
$end
$version
	Icarus Verilog
$end
$timescale
	1s
$end
$scope module testBench $end
$scope module my_SRAM $end
$var wire 1 ! CS $end
$var wire 11 " MemAddress1 [10:0] $end
$var wire 11 # MemAddress2 [10:0] $end
$var wire 16 $ MemData1 [15:0] $end
$var wire 16 % MemData2 [15:0] $end
$var wire 1 & OE $end
$var wire 1 ' RW $end
$var wire 1 ( clk $end
$var wire 16 ) data_in [15:0] $end
$var wire 16 * data_in2 [15:0] $end
$var wire 11 + internalAddress [10:0] $end
$var wire 16 , internalData [15:0] $end
$var reg 2 - counter [1:0] $end
$var reg 11 . internalAddress1 [10:0] $end
$var reg 16 / internalData1 [15:0] $end
$var reg 16 0 outData [15:0] $end
$var reg 16 1 outData2 [15:0] $end
$var reg 1 2 write $end
$var integer 32 3 j [31:0] $end
$upscope $end
$upscope $end
$enddefinitions $end
#0
$dumpvars
b100000000000 3
x2
b0 1
b0 0
bx /
bx .
bx -
bx ,
bx +
bx *
bx )
x(
x'
x&
bx %
bx $
bx #
bx "
0!
$end
#1
b0 -
b1111111 )
b1111111 $
b1111111 *
b1111111 %
12
1&
0'
b11111111111 #
b0 "
1(
#2
0(
#3
1'
1(
#4
0(
#5
b1 -
0'
1(
#6
0(
#7
b1111111 ,
b10 -
b1111111 /
b0 +
b0 .
1'
1(
#8
0(
#9
b0 -
b11111111111 +
b11111111111 .
1(
#10
0(
#11
b1 -
b1111110 *
b1111110 %
b1111110 )
b1111110 $
0'
b11111111110 #
b1 "
1(
#12
0(
#13
b1111110 ,
b10 -
b1111110 /
b1 +
b1 .
1'
1(
#14
0(
#15
b0 -
b11111111110 +
b11111111110 .
1(
#16
0(
#17
b1 -
b1111101 *
b1111101 %
b1111101 )
b1111101 $
0'
b11111111101 #
b10 "
1(
#18
0(
#19
b1111101 ,
b10 -
b1111101 /
b10 +
b10 .
1'
1(
#20
0(
#21
b0 -
b11111111101 +
b11111111101 .
1(
#22
0(
#23
b1 -
b1111100 *
b1111100 %
b1111100 )
b1111100 $
0'
b11111111100 #
b11 "
1(
#24
0(
#25
b1111100 ,
b10 -
b1111100 /
b11 +
b11 .
1'
1(
#26
0(
#27
b0 -
b11111111100 +
b11111111100 .
1(
#28
0(
#29
b1 -
b1111011 *
b1111011 %
b1111011 )
b1111011 $
0'
b11111111011 #
b100 "
1(
#30
0(
#31
b1111011 ,
b10 -
b1111011 /
b100 +
b100 .
1'
1(
#32
0(
#33
b0 -
b11111111011 +
b11111111011 .
1(
#34
0(
#35
b1 -
b1111010 *
b1111010 %
b1111010 )
b1111010 $
0'
b11111111010 #
b101 "
1(
#36
0(
#37
b1111010 ,
b10 -
b1111010 /
b101 +
b101 .
1'
1(
#38
0(
#39
b0 -
b11111111010 +
b11111111010 .
1(
#40
0(
#41
b1 -
b1111001 *
b1111001 %
b1111001 )
b1111001 $
0'
b11111111001 #
b110 "
1(
#42
0(
#43
b1111001 ,
b10 -
b1111001 /
b110 +
b110 .
1'
1(
#44
0(
#45
b0 -
b11111111001 +
b11111111001 .
1(
#46
0(
#47
b1 -
b1111000 *
b1111000 %
b1111000 )
b1111000 $
0'
b11111111000 #
b111 "
1(
#48
0(
#49
b1111000 ,
b10 -
b1111000 /
b111 +
b111 .
1'
1(
#50
0(
#51
b0 -
b11111111000 +
b11111111000 .
1(
#52
0(
#53
b1 -
b1110111 *
b1110111 %
b1110111 )
b1110111 $
0'
b11111110111 #
b1000 "
1(
#54
0(
#55
b1110111 ,
b10 -
b1110111 /
b1000 +
b1000 .
1'
1(
#56
0(
#57
b0 -
b11111110111 +
b11111110111 .
1(
#58
0(
#59
b1 -
b1110110 *
b1110110 %
b1110110 )
b1110110 $
0'
b11111110110 #
b1001 "
1(
#60
0(
#61
b1110110 ,
b10 -
b1110110 /
b1001 +
b1001 .
1'
1(
#62
0(
#63
b0 -
b11111110110 +
b11111110110 .
1(
#64
0(
#65
b1 -
b1110101 *
b1110101 %
b1110101 )
b1110101 $
0'
b11111110101 #
b1010 "
1(
#66
0(
#67
b1110101 ,
b10 -
b1110101 /
b1010 +
b1010 .
1'
1(
#68
0(
#69
b0 -
b11111110101 +
b11111110101 .
1(
#70
0(
#71
b1 -
b1110100 *
b1110100 %
b1110100 )
b1110100 $
0'
b11111110100 #
b1011 "
1(
#72
0(
#73
b1110100 ,
b10 -
b1110100 /
b1011 +
b1011 .
1'
1(
#74
0(
#75
b0 -
b11111110100 +
b11111110100 .
1(
#76
0(
#77
b1 -
b1110011 *
b1110011 %
b1110011 )
b1110011 $
0'
b11111110011 #
b1100 "
1(
#78
0(
#79
b1110011 ,
b10 -
b1110011 /
b1100 +
b1100 .
1'
1(
#80
0(
#81
b0 -
b11111110011 +
b11111110011 .
1(
#82
0(
#83
b1 -
b1110010 *
b1110010 %
b1110010 )
b1110010 $
0'
b11111110010 #
b1101 "
1(
#84
0(
#85
b1110010 ,
b10 -
b1110010 /
b1101 +
b1101 .
1'
1(
#86
0(
#87
b0 -
b11111110010 +
b11111110010 .
1(
#88
0(
#89
b1 -
b1110001 *
b1110001 %
b1110001 )
b1110001 $
0'
b11111110001 #
b1110 "
1(
#90
0(
#91
b1110001 ,
b10 -
b1110001 /
b1110 +
b1110 .
1'
1(
#92
0(
#93
b0 -
b11111110001 +
b11111110001 .
1(
#94
0(
#95
b1 -
b1110000 *
b1110000 %
b1110000 )
b1110000 $
0'
b11111110000 #
b1111 "
1(
#96
0(
#97
b1110000 ,
b10 -
b1110000 /
b1111 +
b1111 .
1'
1(
#98
0(
#99
b0 -
b11111110000 +
b11111110000 .
1(
#100
0(
#101
b1 -
b1101111 *
b1101111 %
b1101111 )
b1101111 $
0'
b11111101111 #
b10000 "
1(
#102
0(
#103
b1101111 ,
b10 -
b1101111 /
b10000 +
b10000 .
1'
1(
#104
0(
#105
b0 -
b11111101111 +
b11111101111 .
1(
#106
0(
#107
b1 -
b1101110 *
b1101110 %
b1101110 )
b1101110 $
0'
b11111101110 #
b10001 "
1(
#108
0(
#109
b1101110 ,
b10 -
b1101110 /
b10001 +
b10001 .
1'
1(
#110
0(
#111
b0 -
b11111101110 +
b11111101110 .
1(
#112
0(
#113
b1 -
b1101101 *
b1101101 %
b1101101 )
b1101101 $
0'
b11111101101 #
b10010 "
1(
#114
0(
#115
b1101101 ,
b10 -
b1101101 /
b10010 +
b10010 .
1'
1(
#116
0(
#117
b0 -
b11111101101 +
b11111101101 .
1(
#118
0(
#119
b1 -
b1101100 *
b1101100 %
b1101100 )
b1101100 $
0'
b11111101100 #
b10011 "
1(
#120
0(
#121
b1101100 ,
b10 -
b1101100 /
b10011 +
b10011 .
1'
1(
#122
0(
#123
b0 -
b11111101100 +
b11111101100 .
1(
#124
0(
#125
b1 -
b1101011 *
b1101011 %
b1101011 )
b1101011 $
0'
b11111101011 #
b10100 "
1(
#126
0(
#127
b1101011 ,
b10 -
b1101011 /
b10100 +
b10100 .
1'
1(
#128
0(
#129
b0 -
b11111101011 +
b11111101011 .
1(
#130
0(
#131
b1 -
b1101010 *
b1101010 %
b1101010 )
b1101010 $
0'
b11111101010 #
b10101 "
1(
#132
0(
#133
b1101010 ,
b10 -
b1101010 /
b10101 +
b10101 .
1'
1(
#134
0(
#135
b0 -
b11111101010 +
b11111101010 .
1(
#136
0(
#137
b1 -
b1101001 *
b1101001 %
b1101001 )
b1101001 $
0'
b11111101001 #
b10110 "
1(
#138
0(
#139
b1101001 ,
b10 -
b1101001 /
b10110 +
b10110 .
1'
1(
#140
0(
#141
b0 -
b11111101001 +
b11111101001 .
1(
#142
0(
#143
b1 -
b1101000 *
b1101000 %
b1101000 )
b1101000 $
0'
b11111101000 #
b10111 "
1(
#144
0(
#145
b1101000 ,
b10 -
b1101000 /
b10111 +
b10111 .
1'
1(
#146
0(
#147
b0 -
b11111101000 +
b11111101000 .
1(
#148
0(
#149
b1 -
b1100111 *
b1100111 %
b1100111 )
b1100111 $
0'
b11111100111 #
b11000 "
1(
#150
0(
#151
b1100111 ,
b10 -
b1100111 /
b11000 +
b11000 .
1'
1(
#152
0(
#153
b0 -
b11111100111 +
b11111100111 .
1(
#154
0(
#155
b1 -
b1100110 *
b1100110 %
b1100110 )
b1100110 $
0'
b11111100110 #
b11001 "
1(
#156
0(
#157
b1100110 ,
b10 -
b1100110 /
b11001 +
b11001 .
1'
1(
#158
0(
#159
b0 -
b11111100110 +
b11111100110 .
1(
#160
0(
#161
b1 -
b1100101 *
b1100101 %
b1100101 )
b1100101 $
0'
b11111100101 #
b11010 "
1(
#162
0(
#163
b1100101 ,
b10 -
b1100101 /
b11010 +
b11010 .
1'
1(
#164
0(
#165
b0 -
b11111100101 +
b11111100101 .
1(
#166
0(
#167
b1 -
b1100100 *
b1100100 %
b1100100 )
b1100100 $
0'
b11111100100 #
b11011 "
1(
#168
0(
#169
b1100100 ,
b10 -
b1100100 /
b11011 +
b11011 .
1'
1(
#170
0(
#171
b0 -
b11111100100 +
b11111100100 .
1(
#172
0(
#173
b1 -
b1100011 *
b1100011 %
b1100011 )
b1100011 $
0'
b11111100011 #
b11100 "
1(
#174
0(
#175
b1100011 ,
b10 -
b1100011 /
b11100 +
b11100 .
1'
1(
#176
0(
#177
b0 -
b11111100011 +
b11111100011 .
1(
#178
0(
#179
b1 -
b1100010 *
b1100010 %
b1100010 )
b1100010 $
0'
b11111100010 #
b11101 "
1(
#180
0(
#181
b1100010 ,
b10 -
b1100010 /
b11101 +
b11101 .
1'
1(
#182
0(
#183
b0 -
b11111100010 +
b11111100010 .
1(
#184
0(
#185
b1 -
b1100001 *
b1100001 %
b1100001 )
b1100001 $
0'
b11111100001 #
b11110 "
1(
#186
0(
#187
b1100001 ,
b10 -
b1100001 /
b11110 +
b11110 .
1'
1(
#188
0(
#189
b0 -
b11111100001 +
b11111100001 .
1(
#190
0(
#191
b1 -
b1100000 *
b1100000 %
b1100000 )
b1100000 $
0'
b11111100000 #
b11111 "
1(
#192
0(
#193
b1100000 ,
b10 -
b1100000 /
b11111 +
b11111 .
1'
1(
#194
0(
#195
b0 -
b11111100000 +
b11111100000 .
1(
#196
0(
#197
b1 -
b1011111 *
b1011111 %
b1011111 )
b1011111 $
0'
b11111011111 #
b100000 "
1(
#198
0(
#199
b1011111 ,
b10 -
b1011111 /
b100000 +
b100000 .
1'
1(
#200
0(
#201
b0 -
b11111011111 +
b11111011111 .
1(
#202
0(
#203
b1 -
b1011110 *
b1011110 %
b1011110 )
b1011110 $
0'
b11111011110 #
b100001 "
1(
#204
0(
#205
b1011110 ,
b10 -
b1011110 /
b100001 +
b100001 .
1'
1(
#206
0(
#207
b0 -
b11111011110 +
b11111011110 .
1(
#208
0(
#209
b1 -
b1011101 *
b1011101 %
b1011101 )
b1011101 $
0'
b11111011101 #
b100010 "
1(
#210
0(
#211
b1011101 ,
b10 -
b1011101 /
b100010 +
b100010 .
1'
1(
#212
0(
#213
b0 -
b11111011101 +
b11111011101 .
1(
#214
0(
#215
b1 -
b1011100 *
b1011100 %
b1011100 )
b1011100 $
0'
b11111011100 #
b100011 "
1(
#216
0(
#217
b1011100 ,
b10 -
b1011100 /
b100011 +
b100011 .
1'
1(
#218
0(
#219
b0 -
b11111011100 +
b11111011100 .
1(
#220
0(
#221
b1 -
b1011011 *
b1011011 %
b1011011 )
b1011011 $
0'
b11111011011 #
b100100 "
1(
#222
0(
#223
b1011011 ,
b10 -
b1011011 /
b100100 +
b100100 .
1'
1(
#224
0(
#225
b0 -
b11111011011 +
b11111011011 .
1(
#226
0(
#227
b1 -
b1011010 *
b1011010 %
b1011010 )
b1011010 $
0'
b11111011010 #
b100101 "
1(
#228
0(
#229
b1011010 ,
b10 -
b1011010 /
b100101 +
b100101 .
1'
1(
#230
0(
#231
b0 -
b11111011010 +
b11111011010 .
1(
#232
0(
#233
b1 -
b1011001 *
b1011001 %
b1011001 )
b1011001 $
0'
b11111011001 #
b100110 "
1(
#234
0(
#235
b1011001 ,
b10 -
b1011001 /
b100110 +
b100110 .
1'
1(
#236
0(
#237
b0 -
b11111011001 +
b11111011001 .
1(
#238
0(
#239
b1 -
b1011000 *
b1011000 %
b1011000 )
b1011000 $
0'
b11111011000 #
b100111 "
1(
#240
0(
#241
b1011000 ,
b10 -
b1011000 /
b100111 +
b100111 .
1'
1(
#242
0(
#243
b0 -
b11111011000 +
b11111011000 .
1(
#244
0(
#245
b1 -
b1010111 *
b1010111 %
b1010111 )
b1010111 $
0'
b11111010111 #
b101000 "
1(
#246
0(
#247
b1010111 ,
b10 -
b1010111 /
b101000 +
b101000 .
1'
1(
#248
0(
#249
b0 -
b11111010111 +
b11111010111 .
1(
#250
0(
#251
b1 -
b1010110 *
b1010110 %
b1010110 )
b1010110 $
0'
b11111010110 #
b101001 "
1(
#252
0(
#253
b1010110 ,
b10 -
b1010110 /
b101001 +
b101001 .
1'
1(
#254
0(
#255
b0 -
b11111010110 +
b11111010110 .
1(
#256
0(
#257
b1 -
b1010101 *
b1010101 %
b1010101 )
b1010101 $
0'
b11111010101 #
b101010 "
1(
#258
0(
#259
b1010101 ,
b10 -
b1010101 /
b101010 +
b101010 .
1'
1(
#260
0(
#261
b0 -
b11111010101 +
b11111010101 .
1(
#262
0(
#263
b1 -
b1010100 *
b1010100 %
b1010100 )
b1010100 $
0'
b11111010100 #
b101011 "
1(
#264
0(
#265
b1010100 ,
b10 -
b1010100 /
b101011 +
b101011 .
1'
1(
#266
0(
#267
b0 -
b11111010100 +
b11111010100 .
1(
#268
0(
#269
b1 -
b1010011 *
b1010011 %
b1010011 )
b1010011 $
0'
b11111010011 #
b101100 "
1(
#270
0(
#271
b1010011 ,
b10 -
b1010011 /
b101100 +
b101100 .
1'
1(
#272
0(
#273
b0 -
b11111010011 +
b11111010011 .
1(
#274
0(
#275
b1 -
b1010010 *
b1010010 %
b1010010 )
b1010010 $
0'
b11111010010 #
b101101 "
1(
#276
0(
#277
b1010010 ,
b10 -
b1010010 /
b101101 +
b101101 .
1'
1(
#278
0(
#279
b0 -
b11111010010 +
b11111010010 .
1(
#280
0(
#281
b1 -
b1010001 *
b1010001 %
b1010001 )
b1010001 $
0'
b11111010001 #
b101110 "
1(
#282
0(
#283
b1010001 ,
b10 -
b1010001 /
b101110 +
b101110 .
1'
1(
#284
0(
#285
b0 -
b11111010001 +
b11111010001 .
1(
#286
0(
#287
b1 -
b1010000 *
b1010000 %
b1010000 )
b1010000 $
0'
b11111010000 #
b101111 "
1(
#288
0(
#289
b1010000 ,
b10 -
b1010000 /
b101111 +
b101111 .
1'
1(
#290
0(
#291
b0 -
b11111010000 +
b11111010000 .
1(
#292
0(
#293
b1 -
b1001111 *
b1001111 %
b1001111 )
b1001111 $
0'
b11111001111 #
b110000 "
1(
#294
0(
#295
b1001111 ,
b10 -
b1001111 /
b110000 +
b110000 .
1'
1(
#296
0(
#297
b0 -
b11111001111 +
b11111001111 .
1(
#298
0(
#299
b1 -
b1001110 *
b1001110 %
b1001110 )
b1001110 $
0'
b11111001110 #
b110001 "
1(
#300
0(
#301
b1001110 ,
b10 -
b1001110 /
b110001 +
b110001 .
1'
1(
#302
0(
#303
b0 -
b11111001110 +
b11111001110 .
1(
#304
0(
#305
b1 -
b1001101 *
b1001101 %
b1001101 )
b1001101 $
0'
b11111001101 #
b110010 "
1(
#306
0(
#307
b1001101 ,
b10 -
b1001101 /
b110010 +
b110010 .
1'
1(
#308
0(
#309
b0 -
b11111001101 +
b11111001101 .
1(
#310
0(
#311
b1 -
b1001100 *
b1001100 %
b1001100 )
b1001100 $
0'
b11111001100 #
b110011 "
1(
#312
0(
#313
b1001100 ,
b10 -
b1001100 /
b110011 +
b110011 .
1'
1(
#314
0(
#315
b0 -
b11111001100 +
b11111001100 .
1(
#316
0(
#317
b1 -
b1001011 *
b1001011 %
b1001011 )
b1001011 $
0'
b11111001011 #
b110100 "
1(
#318
0(
#319
b1001011 ,
b10 -
b1001011 /
b110100 +
b110100 .
1'
1(
#320
0(
#321
b0 -
b11111001011 +
b11111001011 .
1(
#322
0(
#323
b1 -
b1001010 *
b1001010 %
b1001010 )
b1001010 $
0'
b11111001010 #
b110101 "
1(
#324
0(
#325
b1001010 ,
b10 -
b1001010 /
b110101 +
b110101 .
1'
1(
#326
0(
#327
b0 -
b11111001010 +
b11111001010 .
1(
#328
0(
#329
b1 -
b1001001 *
b1001001 %
b1001001 )
b1001001 $
0'
b11111001001 #
b110110 "
1(
#330
0(
#331
b1001001 ,
b10 -
b1001001 /
b110110 +
b110110 .
1'
1(
#332
0(
#333
b0 -
b11111001001 +
b11111001001 .
1(
#334
0(
#335
b1 -
b1001000 *
b1001000 %
b1001000 )
b1001000 $
0'
b11111001000 #
b110111 "
1(
#336
0(
#337
b1001000 ,
b10 -
b1001000 /
b110111 +
b110111 .
1'
1(
#338
0(
#339
b0 -
b11111001000 +
b11111001000 .
1(
#340
0(
#341
b1 -
b1000111 *
b1000111 %
b1000111 )
b1000111 $
0'
b11111000111 #
b111000 "
1(
#342
0(
#343
b1000111 ,
b10 -
b1000111 /
b111000 +
b111000 .
1'
1(
#344
0(
#345
b0 -
b11111000111 +
b11111000111 .
1(
#346
0(
#347
b1 -
b1000110 *
b1000110 %
b1000110 )
b1000110 $
0'
b11111000110 #
b111001 "
1(
#348
0(
#349
b1000110 ,
b10 -
b1000110 /
b111001 +
b111001 .
1'
1(
#350
0(
#351
b0 -
b11111000110 +
b11111000110 .
1(
#352
0(
#353
b1 -
b1000101 *
b1000101 %
b1000101 )
b1000101 $
0'
b11111000101 #
b111010 "
1(
#354
0(
#355
b1000101 ,
b10 -
b1000101 /
b111010 +
b111010 .
1'
1(
#356
0(
#357
b0 -
b11111000101 +
b11111000101 .
1(
#358
0(
#359
b1 -
b1000100 *
b1000100 %
b1000100 )
b1000100 $
0'
b11111000100 #
b111011 "
1(
#360
0(
#361
b1000100 ,
b10 -
b1000100 /
b111011 +
b111011 .
1'
1(
#362
0(
#363
b0 -
b11111000100 +
b11111000100 .
1(
#364
0(
#365
b1 -
b1000011 *
b1000011 %
b1000011 )
b1000011 $
0'
b11111000011 #
b111100 "
1(
#366
0(
#367
b1000011 ,
b10 -
b1000011 /
b111100 +
b111100 .
1'
1(
#368
0(
#369
b0 -
b11111000011 +
b11111000011 .
1(
#370
0(
#371
b1 -
b1000010 *
b1000010 %
b1000010 )
b1000010 $
0'
b11111000010 #
b111101 "
1(
#372
0(
#373
b1000010 ,
b10 -
b1000010 /
b111101 +
b111101 .
1'
1(
#374
0(
#375
b0 -
b11111000010 +
b11111000010 .
1(
#376
0(
#377
b1 -
b1000001 *
b1000001 %
b1000001 )
b1000001 $
0'
b11111000001 #
b111110 "
1(
#378
0(
#379
b1000001 ,
b10 -
b1000001 /
b111110 +
b111110 .
1'
1(
#380
0(
#381
b0 -
b11111000001 +
b11111000001 .
1(
#382
0(
#383
b1 -
b1000000 *
b1000000 %
b1000000 )
b1000000 $
0'
b11111000000 #
b111111 "
1(
#384
0(
#385
b1000000 ,
b10 -
b1000000 /
b111111 +
b111111 .
1'
1(
#386
0(
#387
b0 -
b11111000000 +
b11111000000 .
1(
#388
0(
#389
b1 -
b111111 *
b111111 %
b111111 )
b111111 $
0'
b11110111111 #
b1000000 "
1(
#390
0(
#391
b111111 ,
b10 -
b111111 /
b1000000 +
b1000000 .
1'
1(
#392
0(
#393
b0 -
b11110111111 +
b11110111111 .
1(
#394
0(
#395
b1 -
b111110 *
b111110 %
b111110 )
b111110 $
0'
b11110111110 #
b1000001 "
1(
#396
0(
#397
b111110 ,
b10 -
b111110 /
b1000001 +
b1000001 .
1'
1(
#398
0(
#399
b0 -
b11110111110 +
b11110111110 .
1(
#400
0(
#401
b1 -
b111101 *
b111101 %
b111101 )
b111101 $
0'
b11110111101 #
b1000010 "
1(
#402
0(
#403
b111101 ,
b10 -
b111101 /
b1000010 +
b1000010 .
1'
1(
#404
0(
#405
b0 -
b11110111101 +
b11110111101 .
1(
#406
0(
#407
b1 -
b111100 *
b111100 %
b111100 )
b111100 $
0'
b11110111100 #
b1000011 "
1(
#408
0(
#409
b111100 ,
b10 -
b111100 /
b1000011 +
b1000011 .
1'
1(
#410
0(
#411
b0 -
b11110111100 +
b11110111100 .
1(
#412
0(
#413
b1 -
b111011 *
b111011 %
b111011 )
b111011 $
0'
b11110111011 #
b1000100 "
1(
#414
0(
#415
b111011 ,
b10 -
b111011 /
b1000100 +
b1000100 .
1'
1(
#416
0(
#417
b0 -
b11110111011 +
b11110111011 .
1(
#418
0(
#419
b1 -
b111010 *
b111010 %
b111010 )
b111010 $
0'
b11110111010 #
b1000101 "
1(
#420
0(
#421
b111010 ,
b10 -
b111010 /
b1000101 +
b1000101 .
1'
1(
#422
0(
#423
b0 -
b11110111010 +
b11110111010 .
1(
#424
0(
#425
b1 -
b111001 *
b111001 %
b111001 )
b111001 $
0'
b11110111001 #
b1000110 "
1(
#426
0(
#427
b111001 ,
b10 -
b111001 /
b1000110 +
b1000110 .
1'
1(
#428
0(
#429
b0 -
b11110111001 +
b11110111001 .
1(
#430
0(
#431
b1 -
b111000 *
b111000 %
b111000 )
b111000 $
0'
b11110111000 #
b1000111 "
1(
#432
0(
#433
b111000 ,
b10 -
b111000 /
b1000111 +
b1000111 .
1'
1(
#434
0(
#435
b0 -
b11110111000 +
b11110111000 .
1(
#436
0(
#437
b1 -
b110111 *
b110111 %
b110111 )
b110111 $
0'
b11110110111 #
b1001000 "
1(
#438
0(
#439
b110111 ,
b10 -
b110111 /
b1001000 +
b1001000 .
1'
1(
#440
0(
#441
b0 -
b11110110111 +
b11110110111 .
1(
#442
0(
#443
b1 -
b110110 *
b110110 %
b110110 )
b110110 $
0'
b11110110110 #
b1001001 "
1(
#444
0(
#445
b110110 ,
b10 -
b110110 /
b1001001 +
b1001001 .
1'
1(
#446
0(
#447
b0 -
b11110110110 +
b11110110110 .
1(
#448
0(
#449
b1 -
b110101 *
b110101 %
b110101 )
b110101 $
0'
b11110110101 #
b1001010 "
1(
#450
0(
#451
b110101 ,
b10 -
b110101 /
b1001010 +
b1001010 .
1'
1(
#452
0(
#453
b0 -
b11110110101 +
b11110110101 .
1(
#454
0(
#455
b1 -
b110100 *
b110100 %
b110100 )
b110100 $
0'
b11110110100 #
b1001011 "
1(
#456
0(
#457
b110100 ,
b10 -
b110100 /
b1001011 +
b1001011 .
1'
1(
#458
0(
#459
b0 -
b11110110100 +
b11110110100 .
1(
#460
0(
#461
b1 -
b110011 *
b110011 %
b110011 )
b110011 $
0'
b11110110011 #
b1001100 "
1(
#462
0(
#463
b110011 ,
b10 -
b110011 /
b1001100 +
b1001100 .
1'
1(
#464
0(
#465
b0 -
b11110110011 +
b11110110011 .
1(
#466
0(
#467
b1 -
b110010 *
b110010 %
b110010 )
b110010 $
0'
b11110110010 #
b1001101 "
1(
#468
0(
#469
b110010 ,
b10 -
b110010 /
b1001101 +
b1001101 .
1'
1(
#470
0(
#471
b0 -
b11110110010 +
b11110110010 .
1(
#472
0(
#473
b1 -
b110001 *
b110001 %
b110001 )
b110001 $
0'
b11110110001 #
b1001110 "
1(
#474
0(
#475
b110001 ,
b10 -
b110001 /
b1001110 +
b1001110 .
1'
1(
#476
0(
#477
b0 -
b11110110001 +
b11110110001 .
1(
#478
0(
#479
b1 -
b110000 *
b110000 %
b110000 )
b110000 $
0'
b11110110000 #
b1001111 "
1(
#480
0(
#481
b110000 ,
b10 -
b110000 /
b1001111 +
b1001111 .
1'
1(
#482
0(
#483
b0 -
b11110110000 +
b11110110000 .
1(
#484
0(
#485
b1 -
b101111 *
b101111 %
b101111 )
b101111 $
0'
b11110101111 #
b1010000 "
1(
#486
0(
#487
b101111 ,
b10 -
b101111 /
b1010000 +
b1010000 .
1'
1(
#488
0(
#489
b0 -
b11110101111 +
b11110101111 .
1(
#490
0(
#491
b1 -
b101110 *
b101110 %
b101110 )
b101110 $
0'
b11110101110 #
b1010001 "
1(
#492
0(
#493
b101110 ,
b10 -
b101110 /
b1010001 +
b1010001 .
1'
1(
#494
0(
#495
b0 -
b11110101110 +
b11110101110 .
1(
#496
0(
#497
b1 -
b101101 *
b101101 %
b101101 )
b101101 $
0'
b11110101101 #
b1010010 "
1(
#498
0(
#499
b101101 ,
b10 -
b101101 /
b1010010 +
b1010010 .
1'
1(
#500
0(
#501
b0 -
b11110101101 +
b11110101101 .
1(
#502
0(
#503
b1 -
b101100 *
b101100 %
b101100 )
b101100 $
0'
b11110101100 #
b1010011 "
1(
#504
0(
#505
b101100 ,
b10 -
b101100 /
b1010011 +
b1010011 .
1'
1(
#506
0(
#507
b0 -
b11110101100 +
b11110101100 .
1(
#508
0(
#509
b1 -
b101011 *
b101011 %
b101011 )
b101011 $
0'
b11110101011 #
b1010100 "
1(
#510
0(
#511
b101011 ,
b10 -
b101011 /
b1010100 +
b1010100 .
1'
1(
#512
0(
#513
b0 -
b11110101011 +
b11110101011 .
1(
#514
0(
#515
b1 -
b101010 *
b101010 %
b101010 )
b101010 $
0'
b11110101010 #
b1010101 "
1(
#516
0(
#517
b101010 ,
b10 -
b101010 /
b1010101 +
b1010101 .
1'
1(
#518
0(
#519
b0 -
b11110101010 +
b11110101010 .
1(
#520
0(
#521
b1 -
b101001 *
b101001 %
b101001 )
b101001 $
0'
b11110101001 #
b1010110 "
1(
#522
0(
#523
b101001 ,
b10 -
b101001 /
b1010110 +
b1010110 .
1'
1(
#524
0(
#525
b0 -
b11110101001 +
b11110101001 .
1(
#526
0(
#527
b1 -
b101000 *
b101000 %
b101000 )
b101000 $
0'
b11110101000 #
b1010111 "
1(
#528
0(
#529
b101000 ,
b10 -
b101000 /
b1010111 +
b1010111 .
1'
1(
#530
0(
#531
b0 -
b11110101000 +
b11110101000 .
1(
#532
0(
#533
b1 -
b100111 *
b100111 %
b100111 )
b100111 $
0'
b11110100111 #
b1011000 "
1(
#534
0(
#535
b100111 ,
b10 -
b100111 /
b1011000 +
b1011000 .
1'
1(
#536
0(
#537
b0 -
b11110100111 +
b11110100111 .
1(
#538
0(
#539
b1 -
b100110 *
b100110 %
b100110 )
b100110 $
0'
b11110100110 #
b1011001 "
1(
#540
0(
#541
b100110 ,
b10 -
b100110 /
b1011001 +
b1011001 .
1'
1(
#542
0(
#543
b0 -
b11110100110 +
b11110100110 .
1(
#544
0(
#545
b1 -
b100101 *
b100101 %
b100101 )
b100101 $
0'
b11110100101 #
b1011010 "
1(
#546
0(
#547
b100101 ,
b10 -
b100101 /
b1011010 +
b1011010 .
1'
1(
#548
0(
#549
b0 -
b11110100101 +
b11110100101 .
1(
#550
0(
#551
b1 -
b100100 *
b100100 %
b100100 )
b100100 $
0'
b11110100100 #
b1011011 "
1(
#552
0(
#553
b100100 ,
b10 -
b100100 /
b1011011 +
b1011011 .
1'
1(
#554
0(
#555
b0 -
b11110100100 +
b11110100100 .
1(
#556
0(
#557
b1 -
b100011 *
b100011 %
b100011 )
b100011 $
0'
b11110100011 #
b1011100 "
1(
#558
0(
#559
b100011 ,
b10 -
b100011 /
b1011100 +
b1011100 .
1'
1(
#560
0(
#561
b0 -
b11110100011 +
b11110100011 .
1(
#562
0(
#563
b1 -
b100010 *
b100010 %
b100010 )
b100010 $
0'
b11110100010 #
b1011101 "
1(
#564
0(
#565
b100010 ,
b10 -
b100010 /
b1011101 +
b1011101 .
1'
1(
#566
0(
#567
b0 -
b11110100010 +
b11110100010 .
1(
#568
0(
#569
b1 -
b100001 *
b100001 %
b100001 )
b100001 $
0'
b11110100001 #
b1011110 "
1(
#570
0(
#571
b100001 ,
b10 -
b100001 /
b1011110 +
b1011110 .
1'
1(
#572
0(
#573
b0 -
b11110100001 +
b11110100001 .
1(
#574
0(
#575
b1 -
b100000 *
b100000 %
b100000 )
b100000 $
0'
b11110100000 #
b1011111 "
1(
#576
0(
#577
b100000 ,
b10 -
b100000 /
b1011111 +
b1011111 .
1'
1(
#578
0(
#579
b0 -
b11110100000 +
b11110100000 .
1(
#580
0(
#581
b1 -
b11111 *
b11111 %
b11111 )
b11111 $
0'
b11110011111 #
b1100000 "
1(
#582
0(
#583
b11111 ,
b10 -
b11111 /
b1100000 +
b1100000 .
1'
1(
#584
0(
#585
b0 -
b11110011111 +
b11110011111 .
1(
#586
0(
#587
b1 -
b11110 *
b11110 %
b11110 )
b11110 $
0'
b11110011110 #
b1100001 "
1(
#588
0(
#589
b11110 ,
b10 -
b11110 /
b1100001 +
b1100001 .
1'
1(
#590
0(
#591
b0 -
b11110011110 +
b11110011110 .
1(
#592
0(
#593
b1 -
b11101 *
b11101 %
b11101 )
b11101 $
0'
b11110011101 #
b1100010 "
1(
#594
0(
#595
b11101 ,
b10 -
b11101 /
b1100010 +
b1100010 .
1'
1(
#596
0(
#597
b0 -
b11110011101 +
b11110011101 .
1(
#598
0(
#599
b1 -
b11100 *
b11100 %
b11100 )
b11100 $
0'
b11110011100 #
b1100011 "
1(
#600
0(
#601
b11100 ,
b10 -
b11100 /
b1100011 +
b1100011 .
1'
1(
#602
0(
#603
b0 -
b11110011100 +
b11110011100 .
1(
#604
0(
#605
b1 -
b11011 *
b11011 %
b11011 )
b11011 $
0'
b11110011011 #
b1100100 "
1(
#606
0(
#607
b11011 ,
b10 -
b11011 /
b1100100 +
b1100100 .
1'
1(
#608
0(
#609
b0 -
b11110011011 +
b11110011011 .
1(
#610
0(
#611
b1 -
b11010 *
b11010 %
b11010 )
b11010 $
0'
b11110011010 #
b1100101 "
1(
#612
0(
#613
b11010 ,
b10 -
b11010 /
b1100101 +
b1100101 .
1'
1(
#614
0(
#615
b0 -
b11110011010 +
b11110011010 .
1(
#616
0(
