lab4/quartus/tester.vcd
$date
	Fri Mar 03 00:38:18 2017
$end
$version
	Icarus Verilog
$end
$timescale
	1s
$end
$scope module testBench $end
$scope module my_SRAM $end
$var wire 1 ! CS $end
$var wire 16 " MemData1 [15:0] $end
$var wire 16 # MemData2 [15:0] $end
$var wire 1 $ OE $end
$var wire 1 % RW $end
$var wire 11 & address [10:0] $end
$var wire 1 ' clk $end
$var wire 32 ( data [31:0] $end
$var wire 11 ) MemAddress2 [10:0] $end
$var wire 11 * MemAddress1 [10:0] $end
$upscope $end
$upscope $end
$enddefinitions $end
#0
$dumpvars
bx *
bx )
bx (
x'
bx &
x%
x$
bx #
bx "
0!
$end
#1
b11111111111 )
b0 *
b0 "
b1111111 #
b1111111 (
1$
0%
b0 &
1'
#2
0'
#3
1%
1'
#4
0'
#5
0%
1'
#6
0'
#7
1%
1'
#8
0'
#9
1'
#10
0'
#11
b11111111110 )
b1 *
b1111110 #
b1111110 (
0%
b1 &
1'
#12
0'
#13
1%
1'
#14
0'
#15
1'
#16
0'
#17
b11111111101 )
b10 *
b1111101 #
b1111101 (
0%
b10 &
1'
#18
0'
#19
1%
1'
#20
0'
#21
1'
#22
0'
#23
b11111111100 )
b11 *
b1111100 #
b1111100 (
0%
b11 &
1'
#24
0'
#25
1%
1'
#26
0'
#27
1'
#28
0'
#29
b11111111011 )
b100 *
b1111011 #
b1111011 (
0%
b100 &
1'
#30
0'
#31
1%
1'
#32
0'
#33
1'
#34
0'
#35
b11111111010 )
b101 *
b1111010 #
b1111010 (
0%
b101 &
1'
#36
0'
#37
1%
1'
#38
0'
#39
1'
#40
0'
#41
b11111111001 )
b110 *
b1111001 #
b1111001 (
0%
b110 &
1'
#42
0'
#43
1%
1'
#44
0'
#45
1'
#46
0'
#47
b11111111000 )
b111 *
b1111000 #
b1111000 (
0%
b111 &
1'
#48
0'
#49
1%
1'
#50
0'
#51
1'
#52
0'
#53
b11111110111 )
b1000 *
b1110111 #
b1110111 (
0%
b1000 &
1'
#54
0'
#55
1%
1'
#56
0'
#57
1'
#58
0'
#59
b11111110110 )
b1001 *
b1110110 #
b1110110 (
0%
b1001 &
1'
#60
0'
#61
1%
1'
#62
0'
#63
1'
#64
0'
#65
b11111110101 )
b1010 *
b1110101 #
b1110101 (
0%
b1010 &
1'
#66
0'
#67
1%
1'
#68
0'
#69
1'
#70
0'
#71
b11111110100 )
b1011 *
b1110100 #
b1110100 (
0%
b1011 &
1'
#72
0'
#73
1%
1'
#74
0'
#75
1'
#76
0'
#77
b11111110011 )
b1100 *
b1110011 #
b1110011 (
0%
b1100 &
1'
#78
0'
#79
1%
1'
#80
0'
#81
1'
#82
0'
#83
b11111110010 )
b1101 *
b1110010 #
b1110010 (
0%
b1101 &
1'
#84
0'
#85
1%
1'
#86
0'
#87
1'
#88
0'
#89
b11111110001 )
b1110 *
b1110001 #
b1110001 (
0%
b1110 &
1'
#90
0'
#91
1%
1'
#92
0'
#93
1'
#94
0'
#95
b11111110000 )
b1111 *
b1110000 #
b1110000 (
0%
b1111 &
1'
#96
0'
#97
1%
1'
#98
0'
#99
1'
#100
0'
#101
b11111101111 )
b10000 *
b1101111 #
b1101111 (
0%
b10000 &
1'
#102
0'
#103
1%
1'
#104
0'
#105
1'
#106
0'
#107
b11111101110 )
b10001 *
b1101110 #
b1101110 (
0%
b10001 &
1'
#108
0'
#109
1%
1'
#110
0'
#111
1'
#112
0'
#113
b11111101101 )
b10010 *
b1101101 #
b1101101 (
0%
b10010 &
1'
#114
0'
#115
1%
1'
#116
0'
#117
1'
#118
0'
#119
b11111101100 )
b10011 *
b1101100 #
b1101100 (
0%
b10011 &
1'
#120
0'
#121
1%
1'
#122
0'
#123
1'
#124
0'
#125
b11111101011 )
b10100 *
b1101011 #
b1101011 (
0%
b10100 &
1'
#126
0'
#127
1%
1'
#128
0'
#129
1'
#130
0'
#131
b11111101010 )
b10101 *
b1101010 #
b1101010 (
0%
b10101 &
1'
#132
0'
#133
1%
1'
#134
0'
#135
1'
#136
0'
#137
b11111101001 )
b10110 *
b1101001 #
b1101001 (
0%
b10110 &
1'
#138
0'
#139
1%
1'
#140
0'
#141
1'
#142
0'
#143
b11111101000 )
b10111 *
b1101000 #
b1101000 (
0%
b10111 &
1'
#144
0'
#145
1%
1'
#146
0'
#147
1'
#148
0'
#149
b11111100111 )
b11000 *
b1100111 #
b1100111 (
0%
b11000 &
1'
#150
0'
#151
1%
1'
#152
0'
#153
1'
#154
0'
#155
b11111100110 )
b11001 *
b1100110 #
b1100110 (
0%
b11001 &
1'
#156
0'
#157
1%
1'
#158
0'
#159
1'
#160
0'
#161
b11111100101 )
b11010 *
b1100101 #
b1100101 (
0%
b11010 &
1'
#162
0'
#163
1%
1'
#164
0'
#165
1'
#166
0'
#167
b11111100100 )
b11011 *
b1100100 #
b1100100 (
0%
b11011 &
1'
#168
0'
#169
1%
1'
#170
0'
#171
1'
#172
0'
#173
b11111100011 )
b11100 *
b1100011 #
b1100011 (
0%
b11100 &
1'
#174
0'
#175
1%
1'
#176
0'
#177
1'
#178
0'
#179
b11111100010 )
b11101 *
b1100010 #
b1100010 (
0%
b11101 &
1'
#180
0'
#181
1%
1'
#182
0'
#183
1'
#184
0'
#185
b11111100001 )
b11110 *
b1100001 #
b1100001 (
0%
b11110 &
1'
#186
0'
#187
1%
1'
#188
0'
#189
1'
#190
0'
#191
b11111100000 )
b11111 *
b1100000 #
b1100000 (
0%
b11111 &
1'
#192
0'
#193
1%
1'
#194
0'
#195
1'
#196
0'
#197
b11111011111 )
b100000 *
b1011111 #
b1011111 (
0%
b100000 &
1'
#198
0'
#199
1%
1'
#200
0'
#201
1'
#202
0'
#203
b11111011110 )
b100001 *
b1011110 #
b1011110 (
0%
b100001 &
1'
#204
0'
#205
1%
1'
#206
0'
#207
1'
#208
0'
#209
b11111011101 )
b100010 *
b1011101 #
b1011101 (
0%
b100010 &
1'
#210
0'
#211
1%
1'
#212
0'
#213
1'
#214
0'
#215
b11111011100 )
b100011 *
b1011100 #
b1011100 (
0%
b100011 &
1'
#216
0'
#217
1%
1'
#218
0'
#219
1'
#220
0'
#221
b11111011011 )
b100100 *
b1011011 #
b1011011 (
0%
b100100 &
1'
#222
0'
#223
1%
1'
#224
0'
#225
1'
#226
0'
#227
b11111011010 )
b100101 *
b1011010 #
b1011010 (
0%
b100101 &
1'
#228
0'
#229
1%
1'
#230
0'
#231
1'
#232
0'
#233
b11111011001 )
b100110 *
b1011001 #
b1011001 (
0%
b100110 &
1'
#234
0'
#235
1%
1'
#236
0'
#237
1'
#238
0'
#239
b11111011000 )
b100111 *
b1011000 #
b1011000 (
0%
b100111 &
1'
#240
0'
#241
1%
1'
#242
0'
#243
1'
#244
0'
#245
b11111010111 )
b101000 *
b1010111 #
b1010111 (
0%
b101000 &
1'
#246
0'
#247
1%
1'
#248
0'
#249
1'
#250
0'
#251
b11111010110 )
b101001 *
b1010110 #
b1010110 (
0%
b101001 &
1'
#252
0'
#253
1%
1'
#254
0'
#255
1'
#256
0'
#257
b11111010101 )
b101010 *
b1010101 #
b1010101 (
0%
b101010 &
1'
#258
0'
#259
1%
1'
#260
0'
#261
1'
#262
0'
#263
b11111010100 )
b101011 *
b1010100 #
b1010100 (
0%
b101011 &
1'
#264
0'
#265
1%
1'
#266
0'
#267
1'
#268
0'
#269
b11111010011 )
b101100 *
b1010011 #
b1010011 (
0%
b101100 &
1'
#270
0'
#271
1%
1'
#272
0'
#273
1'
#274
0'
#275
b11111010010 )
b101101 *
b1010010 #
b1010010 (
0%
b101101 &
1'
#276
0'
#277
1%
1'
#278
0'
#279
1'
#280
0'
#281
b11111010001 )
b101110 *
b1010001 #
b1010001 (
0%
b101110 &
1'
#282
0'
#283
1%
1'
#284
0'
#285
1'
#286
0'
#287
b11111010000 )
b101111 *
b1010000 #
b1010000 (
0%
b101111 &
1'
#288
0'
#289
1%
1'
#290
0'
#291
1'
#292
0'
#293
b11111001111 )
b110000 *
b1001111 #
b1001111 (
0%
b110000 &
1'
#294
0'
#295
1%
1'
#296
0'
#297
1'
#298
0'
#299
b11111001110 )
b110001 *
b1001110 #
b1001110 (
0%
b110001 &
1'
#300
0'
#301
1%
1'
#302
0'
#303
1'
#304
0'
#305
b11111001101 )
b110010 *
b1001101 #
b1001101 (
0%
b110010 &
1'
#306
0'
#307
1%
1'
#308
0'
#309
1'
#310
0'
#311
b11111001100 )
b110011 *
b1001100 #
b1001100 (
0%
b110011 &
1'
#312
0'
#313
1%
1'
#314
0'
#315
1'
#316
0'
#317
b11111001011 )
b110100 *
b1001011 #
b1001011 (
0%
b110100 &
1'
#318
0'
#319
1%
1'
#320
0'
#321
1'
#322
0'
#323
b11111001010 )
b110101 *
b1001010 #
b1001010 (
0%
b110101 &
1'
#324
0'
#325
1%
1'
#326
0'
#327
1'
#328
0'
#329
b11111001001 )
b110110 *
b1001001 #
b1001001 (
0%
b110110 &
1'
#330
0'
#331
1%
1'
#332
0'
#333
1'
#334
0'
#335
b11111001000 )
b110111 *
b1001000 #
b1001000 (
0%
b110111 &
1'
#336
0'
#337
1%
1'
#338
0'
#339
1'
#340
0'
#341
b11111000111 )
b111000 *
b1000111 #
b1000111 (
0%
b111000 &
1'
#342
0'
#343
1%
1'
#344
0'
#345
1'
#346
0'
#347
b11111000110 )
b111001 *
b1000110 #
b1000110 (
0%
b111001 &
1'
#348
0'
#349
1%
1'
#350
0'
#351
1'
#352
0'
#353
b11111000101 )
b111010 *
b1000101 #
b1000101 (
0%
b111010 &
1'
#354
0'
#355
1%
1'
#356
0'
#357
1'
#358
0'
#359
b11111000100 )
b111011 *
b1000100 #
b1000100 (
0%
b111011 &
1'
#360
0'
#361
1%
1'
#362
0'
#363
1'
#364
0'
#365
b11111000011 )
b111100 *
b1000011 #
b1000011 (
0%
b111100 &
1'
#366
0'
#367
1%
1'
#368
0'
#369
1'
#370
0'
#371
b11111000010 )
b111101 *
b1000010 #
b1000010 (
0%
b111101 &
1'
#372
0'
#373
1%
1'
#374
0'
#375
1'
#376
0'
#377
b11111000001 )
b111110 *
b1000001 #
b1000001 (
0%
b111110 &
1'
#378
0'
#379
1%
1'
#380
0'
#381
1'
#382
0'
#383
b11111000000 )
b111111 *
b1000000 #
b1000000 (
0%
b111111 &
1'
#384
0'
#385
1%
1'
#386
0'
#387
1'
#388
0'
#389
b11110111111 )
b1000000 *
b111111 #
b111111 (
0%
b1000000 &
1'
#390
0'
#391
1%
1'
#392
0'
#393
1'
#394
0'
#395
b11110111110 )
b1000001 *
b111110 #
b111110 (
0%
b1000001 &
1'
#396
0'
#397
1%
1'
#398
0'
#399
1'
#400
0'
#401
b11110111101 )
b1000010 *
b111101 #
b111101 (
0%
b1000010 &
1'
#402
0'
#403
1%
1'
#404
0'
#405
1'
#406
0'
#407
b11110111100 )
b1000011 *
b111100 #
b111100 (
0%
b1000011 &
1'
#408
0'
#409
1%
1'
#410
0'
#411
1'
#412
0'
#413
b11110111011 )
b1000100 *
b111011 #
b111011 (
0%
b1000100 &
1'
#414
0'
#415
1%
1'
#416
0'
#417
1'
#418
0'
#419
b11110111010 )
b1000101 *
b111010 #
b111010 (
0%
b1000101 &
1'
#420
0'
#421
1%
1'
#422
0'
#423
1'
#424
0'
#425
b11110111001 )
b1000110 *
b111001 #
b111001 (
0%
b1000110 &
1'
#426
0'
#427
1%
1'
#428
0'
#429
1'
#430
0'
#431
b11110111000 )
b1000111 *
b111000 #
b111000 (
0%
b1000111 &
1'
#432
0'
#433
1%
1'
#434
0'
#435
1'
#436
0'
#437
b11110110111 )
b1001000 *
b110111 #
b110111 (
0%
b1001000 &
1'
#438
0'
#439
1%
1'
#440
0'
#441
1'
#442
0'
#443
b11110110110 )
b1001001 *
b110110 #
b110110 (
0%
b1001001 &
1'
#444
0'
#445
1%
1'
#446
0'
#447
1'
#448
0'
#449
b11110110101 )
b1001010 *
b110101 #
b110101 (
0%
b1001010 &
1'
#450
0'
#451
1%
1'
#452
0'
#453
1'
#454
0'
#455
b11110110100 )
b1001011 *
b110100 #
b110100 (
0%
b1001011 &
1'
#456
0'
#457
1%
1'
#458
0'
#459
1'
#460
0'
#461
b11110110011 )
b1001100 *
b110011 #
b110011 (
0%
b1001100 &
1'
#462
0'
#463
1%
1'
#464
0'
#465
1'
#466
0'
#467
b11110110010 )
b1001101 *
b110010 #
b110010 (
0%
b1001101 &
1'
#468
0'
#469
1%
1'
#470
0'
#471
1'
#472
0'
#473
b11110110001 )
b1001110 *
b110001 #
b110001 (
0%
b1001110 &
1'
#474
0'
#475
1%
1'
#476
0'
#477
1'
#478
0'
#479
b11110110000 )
b1001111 *
b110000 #
b110000 (
0%
b1001111 &
1'
#480
0'
#481
1%
1'
#482
0'
#483
1'
#484
0'
#485
b11110101111 )
b1010000 *
b101111 #
b101111 (
0%
b1010000 &
1'
#486
0'
#487
1%
1'
#488
0'
#489
1'
#490
0'
#491
b11110101110 )
b1010001 *
b101110 #
b101110 (
0%
b1010001 &
1'
#492
0'
#493
1%
1'
#494
0'
#495
1'
#496
0'
#497
b11110101101 )
b1010010 *
b101101 #
b101101 (
0%
b1010010 &
1'
#498
0'
#499
1%
1'
#500
0'
#501
1'
#502
0'
#503
b11110101100 )
b1010011 *
b101100 #
b101100 (
0%
b1010011 &
1'
#504
0'
#505
1%
1'
#506
0'
#507
1'
#508
0'
#509
b11110101011 )
b1010100 *
b101011 #
b101011 (
0%
b1010100 &
1'
#510
0'
#511
1%
1'
#512
0'
#513
1'
#514
0'
#515
b11110101010 )
b1010101 *
b101010 #
b101010 (
0%
b1010101 &
1'
#516
0'
#517
1%
1'
#518
0'
#519
1'
#520
0'
#521
b11110101001 )
b1010110 *
b101001 #
b101001 (
0%
b1010110 &
1'
#522
0'
#523
1%
1'
#524
0'
#525
1'
#526
0'
#527
b11110101000 )
b1010111 *
b101000 #
b101000 (
0%
b1010111 &
1'
#528
0'
#529
1%
1'
#530
0'
#531
1'
#532
0'
#533
b11110100111 )
b1011000 *
b100111 #
b100111 (
0%
b1011000 &
1'
#534
0'
#535
1%
1'
#536
0'
#537
1'
#538
0'
#539
b11110100110 )
b1011001 *
b100110 #
b100110 (
0%
b1011001 &
1'
#540
0'
#541
1%
1'
#542
0'
#543
1'
#544
0'
#545
b11110100101 )
b1011010 *
b100101 #
b100101 (
0%
b1011010 &
1'
#546
0'
#547
1%
1'
#548
0'
#549
1'
#550
0'
#551
b11110100100 )
b1011011 *
b100100 #
b100100 (
0%
b1011011 &
1'
#552
0'
#553
1%
1'
#554
0'
#555
1'
#556
0'
#557
b11110100011 )
b1011100 *
b100011 #
b100011 (
0%
b1011100 &
1'
#558
0'
#559
1%
1'
#560
0'
#561
1'
#562
0'
#563
b11110100010 )
b1011101 *
b100010 #
b100010 (
0%
b1011101 &
1'
#564
0'
#565
1%
1'
#566
0'
#567
1'
#568
0'
#569
b11110100001 )
b1011110 *
b100001 #
b100001 (
0%
b1011110 &
1'
#570
0'
#571
1%
1'
#572
0'
#573
1'
#574
0'
#575
b11110100000 )
b1011111 *
b100000 #
b100000 (
0%
b1011111 &
1'
#576
0'
#577
1%
1'
#578
0'
#579
1'
#580
0'
#581
b11110011111 )
b1100000 *
b11111 #
b11111 (
0%
b1100000 &
1'
#582
0'
#583
1%
1'
#584
0'
#585
1'
#586
0'
#587
b11110011110 )
b1100001 *
b11110 #
b11110 (
0%
b1100001 &
1'
#588
0'
#589
1%
1'
#590
0'
#591
1'
#592
0'
#593
b11110011101 )
b1100010 *
b11101 #
b11101 (
0%
b1100010 &
1'
#594
0'
#595
1%
1'
#596
0'
#597
1'
#598
0'
#599
b11110011100 )
b1100011 *
b11100 #
b11100 (
0%
b1100011 &
1'
#600
0'
#601
1%
1'
#602
0'
#603
1'
#604
0'
#605
b11110011011 )
b1100100 *
b11011 #
b11011 (
0%
b1100100 &
1'
#606
0'
#607
1%
1'
#608
0'
#609
1'
#610
0'
#611
b11110011010 )
b1100101 *
b11010 #
b11010 (
0%
b1100101 &
1'
#612
0'
#613
1%
1'
#614
0'
#615
1'
#616
0'
#617
b11110011001 )
b1100110 *
b11001 #
b11001 (
0%
b1100110 &
1'
#618
0'
#619
1%
1'
#620
0'
#621
1'
#622
0'
#623
b11110011000 )
b1100111 *
b11000 #
b11000 (
0%
b1100111 &
1'
#624
0'
#625
1%
1'
#626
0'
#627
1'
#628
0'
#629
b11110010111 )
b1101000 *
b10111 #
b10111 (
0%
b1101000 &
1'
#630
0'
#631
1%
1'
#632
0'
#633
1'
#634
0'
#635
b11110010110 )
b1101001 *
b10110 #
b10110 (
0%
b1101001 &
1'
#636
0'
#637
1%
1'
#638
0'
#639
1'
#640
0'
#641
b11110010101 )
b1101010 *
b10101 #
b10101 (
0%
b1101010 &
1'
#642
0'
#643
1%
1'
#644
0'
#645
1'
#646
0'
#647
b11110010100 )
b1101011 *
b10100 #
b10100 (
0%
b1101011 &
1'
#648
0'
#649
1%
1'
#650
0'
#651
1'
#652
0'
#653
b11110010011 )
b1101100 *
b10011 #
b10011 (
0%
b1101100 &
1'
#654
0'
#655
1%
1'
#656
0'
#657
1'
#658
0'
#659
b11110010010 )
b1101101 *
b10010 #
b10010 (
0%
b1101101 &
1'
#660
0'
#661
1%
1'
#662
0'
#663
1'
#664
0'
#665
b11110010001 )
b1101110 *
b10001 #
b10001 (
0%
b1101110 &
1'
#666
0'
#667
1%
1'
#668
0'
#669
1'
#670
0'
#671
b11110010000 )
b1101111 *
b10000 #
b10000 (
0%
b1101111 &
1'
#672
0'
#673
1%
1'
#674
0'
#675
1'
#676
0'
#677
b11110001111 )
b1110000 *
b1111 #
b1111 (
0%
b1110000 &
1'
#678
0'
#679
1%
1'
#680
0'
#681
1'
#682
0'
#683
b11110001110 )
b1110001 *
b1110 #
b1110 (
0%
b1110001 &
1'
#684
0'
#685
1%
1'
#686
0'
#687
1'
#688
0'
#689
b11110001101 )
b1110010 *
b1101 #
b1101 (
0%
b1110010 &
1'
#690
0'
#691
1%
1'
#692
0'
#693
1'
#694
0'
#695
b11110001100 )
b1110011 *
b1100 #
b1100 (
0%
b1110011 &
1'
#696
0'
#697
1%
1'
#698
0'
#699
1'
#700
0'
#701
b11110001011 )
b1110100 *
b1011 #
b1011 (
0%
b1110100 &
1'
#702
0'
#703
1%
1'
#704
0'
#705
1'
#706
0'
#707
b11110001010 )
b1110101 *
b1010 #
b1010 (
0%
b1110101 &
1'
#708
0'
#709
1%
1'
#710
0'
#711
1'
#712
0'
#713
b11110001001 )
b1110110 *
b1001 #
b1001 (
0%
b1110110 &
1'
#714
0'
#715
1%
1'
#716
0'
#717
1'
#718
0'
#719
b11110001000 )
b1110111 *
b1000 #
b1000 (
0%
b1110111 &
1'
#720
0'
#721
1%
1'
#722
0'
#723
1'
#724
0'
#725
b11110000111 )
b1111000 *
b111 #
b111 (
0%
b1111000 &
1'
#726
0'
#727
1%
1'
#728
0'
#729
1'
#730
0'
#731
b11110000110 )
b1111001 *
b110 #
b110 (
0%
b1111001 &
1'
#732
0'
#733
1%
1'
#734
0'
#735
1'
#736
0'
#737
b11110000101 )
b1111010 *
b101 #
b101 (
0%
b1111010 &
1'
#738
0'
#739
1%
1'
#740
0'
#741
1'
#742
0'
#743
b11110000100 )
b1111011 *
b100 #
b100 (
0%
b1111011 &
1'
#744
0'
#745
1%
1'
#746
0'
#747
1'
#748
0'
#749
b11110000011 )
b1111100 *
b11 #
b11 (
0%
b1111100 &
1'
#750
0'
#751
1%
1'
#752
0'
#753
1'
#754
0'
#755
b11110000010 )
b1111101 *
b10 #
b10 (
0%
b1111101 &
1'
#756
0'
#757
1%
1'
#758
0'
#759
1'
#760
0'
#761
b11110000001 )
b1111110 *
b1 #
b1 (
0%
b1111110 &
1'
#762
0'
#763
1%
1'
#764
0'
#765
1'
#766
0'
#767
b11110000000 )
b1111111 *
b0 #
b0 (
0%
b1111111 &
1'
#768
0'
#769
1%
1'
#770
0'
#771
1'
#772
0'
#773
b11111111111 )
b0 *
0$
b0 &
1'
#774
0'
#775
1'
#776
0'
#777
b11111111110 )
b1 *
b1 &
1'
#778
0'
#779
b1111111 (
b1111111 #
1'
#780
0'
#781
b11111111101 )
b10 *
b10 &
1'
#782
0'
#783
b1111110 (
b1111110 #
1'
#784
0'
#785
b11111111100 )
b11 *
b11 &
1'
#786
0'
#787
b1111101 (
b1111101 #
1'
#788
0'
#789
b11111111011 )
b100 *
b100 &
1'
#790
0'
#791
b1111100 (
b1111100 #
1'
#792
0'
#793
b11111111010 )
b101 *
b101 &
1'
#794
0'
#795
b1111011 (
b1111011 #
1'
#796
0'
#797
b11111111001 )
b110 *
b110 &
1'
#798
0'
#799
b1111010 (
b1111010 #
1'
#800
0'
#801
b11111111000 )
b111 *
b111 &
1'
#802
0'
#803
b1111001 (
b1111001 #
1'
#804
0'
#805
b11111110111 )
b1000 *
b1000 &
1'
#806
0'
#807
b1111000 (
b1111000 #
1'
#808
0'
#809
b11111110110 )
b1001 *
b1001 &
1'
#810
0'
#811
b1110111 (
b1110111 #
1'
#812
0'
#813
b11111110101 )
b1010 *
b1010 &
1'
#814
0'
#815
b1110110 (
b1110110 #
1'
#816
0'
#817
b11111110100 )
b1011 *
b1011 &
1'
#818
0'
#819
b1110101 (
b1110101 #
1'
#820
0'
#821
b11111110011 )
b1100 *
b1100 &
1'
#822
0'
#823
b1110100 (
b1110100 #
1'
#824
0'
#825
b11111110010 )
b1101 *
b1101 &
1'
#826
0'
#827
b1110011 (
b1110011 #
1'
#828
0'
#829
b11111110001 )
b1110 *
b1110 &
1'
#830
0'
#831
b1110010 (
b1110010 #
1'
#832
0'
#833
b11111110000 )
b1111 *
b1111 &
1'
#834
0'
#835
b1110001 (
b1110001 #
1'
#836
0'
#837
b11111101111 )
b10000 *
b10000 &
1'
#838
0'
#839
b1110000 (
b1110000 #
1'
#840
0'
#841
b11111101110 )
b10001 *
b10001 &
1'
#842
0'
#843
b1101111 (
b1101111 #
1'
#844
0'
#845
b11111101101 )
b10010 *
b10010 &
1'
#846
0'
#847
b1101110 (
b1101110 #
1'
#848
0'
#849
b11111101100 )
b10011 *
b10011 &
1'
#850
0'
#851
b1101101 (
b1101101 #
1'
#852
0'
#853
b11111101011 )
b10100 *
b10100 &
1'
#854
0'
#855
b1101100 (
b1101100 #
1'
#856
0'
#857
b11111101010 )
b10101 *
b10101 &
1'
#858
0'
#859
b1101011 (
b1101011 #
1'
#860
0'
#861
b11111101001 )
b10110 *
b10110 &
1'
#862
0'
#863
b1101010 (
b1101010 #
1'
#864
0'
#865
b11111101000 )
b10111 *
b10111 &
1'
#866
0'
#867
b1101001 (
b1101001 #
1'
#868
0'
#869
b11111100111 )
b11000 *
b11000 &
1'
#870
0'
#871
b1101000 (
b1101000 #
1'
#872
0'
#873
b11111100110 )
b11001 *
b11001 &
1'
#874
0'
#875
b1100111 (
b1100111 #
1'
#876
0'
#877
b11111100101 )
b11010 *
b11010 &
1'
#878
0'
#879
b1100110 (
b1100110 #
1'
#880
0'
#881
b11111100100 )
b11011 *
b11011 &
1'
#882
0'
#883
b1100101 (
b1100101 #
1'
#884
0'
#885
b11111100011 )
b11100 *
b11100 &
1'
#886
0'
#887
b1100100 (
b1100100 #
1'
#888
0'
#889
b11111100010 )
b11101 *
b11101 &
1'
#890
0'
#891
b1100011 (
b1100011 #
1'
#892
0'
#893
b11111100001 )
b11110 *
b11110 &
1'
#894
0'
#895
b1100010 (
b1100010 #
1'
#896
0'
#897
b11111100000 )
b11111 *
b11111 &
1'
#898
0'
#899
b1100001 (
b1100001 #
1'
#900
0'
#901
b11111011111 )
b100000 *
b100000 &
1'
#902
0'
#903
b1100000 (
b1100000 #
1'
#904
0'
#905
b11111011110 )
b100001 *
b100001 &
1'
#906
0'
#907
b1011111 (
b1011111 #
1'
#908
0'
#909
b11111011101 )
b100010 *
b100010 &
1'
#910
0'
#911
b1011110 (
b1011110 #
1'
#912
0'
#913
b11111011100 )
b100011 *
b100011 &
1'
#914
0'
#915
b1011101 (
b1011101 #
1'
#916
0'
#917
b11111011011 )
b100100 *
b100100 &
1'
#918
0'
#919
b1011100 (
b1011100 #
1'
#920
0'
#921
b11111011010 )
b100101 *
b100101 &
1'
#922
0'
#923
b1011011 (
b1011011 #
1'
#924
0'
#925
b11111011001 )
b100110 *
b100110 &
1'
#926
0'
#927
b1011010 (
b1011010 #
1'
#928
0'
#929
b11111011000 )
b100111 *
b100111 &
1'
#930
0'
#931
b1011001 (
b1011001 #
1'
#932
0'
#933
b11111010111 )
b101000 *
b101000 &
1'
#934
0'
#935
b1011000 (
b1011000 #
1'
#936
0'
#937
b11111010110 )
b101001 *
b101001 &
1'
#938
0'
#939
b1010111 (
b1010111 #
1'
#940
0'
#941
b11111010101 )
b101010 *
b101010 &
1'
#942
0'
#943
b1010110 (
b1010110 #
1'
#944
0'
#945
b11111010100 )
b101011 *
b101011 &
1'
#946
0'
#947
b1010101 (
b1010101 #
1'
#948
0'
#949
b11111010011 )
b101100 *
b101100 &
1'
#950
0'
#951
b1010100 (
b1010100 #
1'
#952
0'
#953
b11111010010 )
b101101 *
b101101 &
1'
#954
0'
#955
b1010011 (
b1010011 #
1'
#956
0'
#957
b11111010001 )
b101110 *
b101110 &
1'
#958
0'
#959
b1010010 (
b1010010 #
1'
#960
0'
#961
b11111010000 )
b101111 *
b101111 &
1'
#962
0'
#963
b1010001 (
b1010001 #
1'
#964
0'
#965
b11111001111 )
b110000 *
b110000 &
1'
#966
0'
#967
b1010000 (
b1010000 #
1'
#968
0'
#969
b11111001110 )
b110001 *
b110001 &
1'
#970
0'
#971
b1001111 (
b1001111 #
1'
#972
0'
#973
b11111001101 )
b110010 *
b110010 &
1'
#974
0'
#975
b1001110 (
b1001110 #
1'
#976
0'
#977
b11111001100 )
b110011 *
b110011 &
1'
#978
0'
#979
b1001101 (
b1001101 #
1'
#980
0'
#981
b11111001011 )
b110100 *
b110100 &
1'
#982
0'
#983
b1001100 (
b1001100 #
1'
#984
0'
#985
b11111001010 )
b110101 *
b110101 &
1'
#986
0'
#987
b1001011 (
b1001011 #
1'
#988
0'
#989
b11111001001 )
b110110 *
b110110 &
1'
#990
0'
#991
b1001010 (
b1001010 #
1'
#992
0'
#993
b11111001000 )
b110111 *
b110111 &
1'
#994
0'
#995
b1001001 (
b1001001 #
1'
#996
0'
#997
b11111000111 )
b111000 *
b111000 &
1'
#998
0'
#999
b1001000 (
b1001000 #
1'
#1000
0'
#1001
b11111000110 )
b111001 *
b111001 &
1'
#1002
0'
#1003
b1000111 (
b1000111 #
1'
#1004
0'
#1005
b11111000101 )
b111010 *
b111010 &
1'
#1006
0'
#1007
b1000110 (
b1000110 #
1'
#1008
0'
#1009
b11111000100 )
b111011 *
b111011 &
1'
#1010
0'
#1011
b1000101 (
b1000101 #
1'
#1012
0'
#1013
b11111000011 )
b111100 *
b111100 &
1'
#1014
0'
#1015
b1000100 (
b1000100 #
1'
#1016
0'
#1017
b11111000010 )
b111101 *
b111101 &
1'
#1018
0'
#1019
b1000011 (
b1000011 #
1'
#1020
0'
#1021
b11111000001 )
b111110 *
b111110 &
1'
#1022
0'
#1023
b1000010 (
b1000010 #
1'
#1024
0'
#1025
b11111000000 )
b111111 *
b111111 &
1'
#1026
0'
#1027
b1000001 (
b1000001 #
1'
#1028
0'
#1029
b11110111111 )
b1000000 *
b1000000 &
1'
#1030
0'
#1031
b1000000 (
b1000000 #
1'
#1032
0'
#1033
b11110111110 )
b1000001 *
b1000001 &
1'
#1034
0'
#1035
b111111 (
b111111 #
1'
#1036
0'
#1037
b11110111101 )
b1000010 *
b1000010 &
1'
#1038
0'
#1039
b111110 (
b111110 #
1'
#1040
0'
#1041
b11110111100 )
b1000011 *
b1000011 &
1'
#1042
0'
#1043
b111101 (
b111101 #
1'
#1044
0'
#1045
b11110111011 )
b1000100 *
b1000100 &
1'
#1046
0'
#1047
b111100 (
b111100 #
1'
#1048
0'
#1049
b11110111010 )
b1000101 *
b1000101 &
1'
#1050
0'
#1051
b111011 (
b111011 #
1'
#1052
0'
#1053
b11110111001 )
b1000110 *
b1000110 &
1'
#1054
0'
#1055
b111010 (
b111010 #
1'
#1056
0'
#1057
b11110111000 )
b1000111 *
b1000111 &
1'
#1058
0'
#1059
b111001 (
b111001 #
1'
#1060
0'
#1061
b11110110111 )
b1001000 *
b1001000 &
1'
#1062
0'
#1063
b111000 (
b111000 #
1'
#1064
0'
#1065
b11110110110 )
b1001001 *
b1001001 &
1'
#1066
0'
#1067
b110111 (
b110111 #
1'
#1068
0'
#1069
b11110110101 )
b1001010 *
b1001010 &
1'
#1070
0'
#1071
b110110 (
b110110 #
1'
#1072
0'
#1073
b11110110100 )
b1001011 *
b1001011 &
1'
#1074
0'
#1075
b110101 (
b110101 #
1'
#1076
0'
#1077
b11110110011 )
b1001100 *
b1001100 &
1'
#1078
0'
#1079
b110100 (
b110100 #
1'
#1080
0'
#1081
b11110110010 )
b1001101 *
b1001101 &
1'
#1082
0'
#1083
b110011 (
b110011 #
1'
#1084
0'
#1085
b11110110001 )
b1001110 *
b1001110 &
1'
#1086
0'
#1087
b110010 (
b110010 #
1'
#1088
0'
#1089
b11110110000 )
b1001111 *
b1001111 &
1'
#1090
0'
#1091
b110001 (
b110001 #
1'
#1092
0'
#1093
b11110101111 )
b1010000 *
b1010000 &
1'
#1094
0'
#1095
b110000 (
b110000 #
1'
#1096
0'
#1097
b11110101110 )
b1010001 *
b1010001 &
1'
#1098
0'
#1099
b101111 (
b101111 #
1'
#1100
0'
#1101
b11110101101 )
b1010010 *
b1010010 &
1'
#1102
0'
#1103
b101110 (
b101110 #
1'
#1104
0'
#1105
b11110101100 )
b1010011 *
b1010011 &
1'
